C:\MARIVA_SVN_EDF\external_libs\blitz-0.9\Blitz-Testsuite\modules\Win32\Release\cl.command.1.tlog
C:\MARIVA_SVN_EDF\external_libs\blitz-0.9\Blitz-Testsuite\modules\Win32\Release\CL.read.1.tlog
C:\MARIVA_SVN_EDF\external_libs\blitz-0.9\Blitz-Testsuite\modules\Win32\Release\CL.write.1.tlog
C:\MARIVA_SVN_EDF\external_libs\blitz-0.9\Blitz-Testsuite\modules\Win32\Release\link.command.1.tlog
C:\MARIVA_SVN_EDF\external_libs\blitz-0.9\Blitz-Testsuite\modules\Win32\Release\link.read.1.tlog
C:\MARIVA_SVN_EDF\external_libs\blitz-0.9\Blitz-Testsuite\modules\Win32\Release\link.write.1.tlog
C:\MARIVA_SVN_EDF\EXTERNAL_LIBS\BLITZ-0.9\BLITZ-TESTSUITE\MODULES\WIN32\RELEASE\MODULE1.OBJ
C:\MARIVA_SVN_EDF\EXTERNAL_LIBS\BLITZ-0.9\BLITZ-TESTSUITE\MODULES\WIN32\RELEASE\MODULE2.OBJ
C:\MARIVA_SVN_EDF\EXTERNAL_LIBS\BLITZ-0.9\BLITZ-TESTSUITE\MODULES\WIN32\RELEASE\MODULES.EXE
C:\MARIVA_SVN_EDF\EXTERNAL_LIBS\BLITZ-0.9\BLITZ-TESTSUITE\MODULES\WIN32\RELEASE\MODULES.EXE.INTERMEDIATE.MANIFEST
C:\MARIVA_SVN_EDF\external_libs\blitz-0.9\Blitz-Testsuite\modules\Win32\Release\modules.write.1.tlog
C:\MARIVA_SVN_EDF\external_libs\blitz-0.9\Blitz-Testsuite\modules\Win32\Release\mt.command.1.tlog
C:\MARIVA_SVN_EDF\external_libs\blitz-0.9\Blitz-Testsuite\modules\Win32\Release\mt.read.1.tlog
C:\MARIVA_SVN_EDF\external_libs\blitz-0.9\Blitz-Testsuite\modules\Win32\Release\mt.write.1.tlog
C:\MARIVA_SVN_EDF\EXTERNAL_LIBS\BLITZ-0.9\BLITZ-TESTSUITE\MODULES\WIN32\RELEASE\VC100.PDB
