C:\WORK\GFLAGS-2.0\VSPROJECTS\LIBGFLAGS\DEBUG\GFLAGS.OBJ
C:\WORK\GFLAGS-2.0\VSPROJECTS\LIBGFLAGS\DEBUG\GFLAGS_REPORTING.OBJ
C:\WORK\GFLAGS-2.0\VSPROJECTS\LIBGFLAGS\DEBUG\GFLAGS_COMPLETIONS.OBJ
C:\WORK\GFLAGS-2.0\VSPROJECTS\LIBGFLAGS\DEBUG\PORT.OBJ
C:\WORK\GFLAGS-2.0\VSPROJECTS\LIBGFLAGS\DEBUG\VC110.PDB
C:\work\gflags-2.0\Debug\libgflags-debug.lib
C:\work\gflags-2.0\Debug\libgflags-debug.exp
C:\WORK\GFLAGS-2.0\DEBUG\LIBGFLAGS-DEBUG.ILK
C:\WORK\GFLAGS-2.0\DEBUG\LIBGFLAGS-DEBUG.DLL
C:\WORK\GFLAGS-2.0\DEBUG\LIBGFLAGS-DEBUG.PDB
C:\work\gflags-2.0\vsprojects\libgflags\Debug\gflags.obj
C:\work\gflags-2.0\vsprojects\libgflags\Debug\gflags_completions.obj
C:\work\gflags-2.0\vsprojects\libgflags\Debug\gflags_reporting.obj
C:\work\gflags-2.0\vsprojects\libgflags\Debug\port.obj
C:\work\gflags-2.0\vsprojects\libgflags\Debug\cl.command.1.tlog
C:\work\gflags-2.0\vsprojects\libgflags\Debug\CL.read.1.tlog
C:\work\gflags-2.0\vsprojects\libgflags\Debug\CL.write.1.tlog
C:\work\gflags-2.0\vsprojects\libgflags\Debug\libgflags.write.1.tlog
C:\work\gflags-2.0\vsprojects\libgflags\Debug\link-cvtres.read.1.tlog
C:\work\gflags-2.0\vsprojects\libgflags\Debug\link-cvtres.write.1.tlog
C:\work\gflags-2.0\vsprojects\libgflags\Debug\link-rc.read.1.tlog
C:\work\gflags-2.0\vsprojects\libgflags\Debug\link-rc.write.1.tlog
C:\work\gflags-2.0\vsprojects\libgflags\Debug\link.command.1.tlog
C:\work\gflags-2.0\vsprojects\libgflags\Debug\link.read.1.tlog
C:\work\gflags-2.0\vsprojects\libgflags\Debug\link.write.1.tlog
C:\work\gflags-2.0\vsprojects\libgflags\Debug\vc110.idb
C:\work\gflags-2.0\vsprojects\libgflags\Debug\vc110.pdb
